<?xml version="1.0" encoding="UTF-8"?>
<svg width="17px" height="113px" viewBox="0 0 17 113" version="1.1" xmlns="http://www.w3.org/2000/svg" xmlns:xlink="http://www.w3.org/1999/xlink">
    <!-- Generator: Sketch 56 (81588) - https://sketch.com -->
    <title>Group</title>
    <desc>Created with Sketch.</desc>
    <g id="Symbols" stroke="none" stroke-width="1" fill="none" fill-rule="evenodd">
        <g id="timeline-thing">
            <g id="Group" transform="translate(2.000000, 2.000000)">
                <circle id="Oval" stroke="#25D3A7" stroke-width="3" fill="#FFFFFF" cx="6.5" cy="6.5" r="6.5"></circle>
                <circle id="Oval-Copy" stroke="#25D3A7" stroke-width="3" fill="#FFFFFF" cx="6.5" cy="102.5" r="6.5"></circle>
                <path d="M6.5,14 L6.5,96" id="Path" stroke="#25D3A7" stroke-width="2"></path>
                <circle id="Oval-Copy-2" fill="#25D3A7" cx="6.5" cy="65.5" r="4.5"></circle>
            </g>
        </g>
    </g>
</svg>